graph TB
    subgraph FrontEnd
    SimulationView
    end

    subgraph Api
    Driver---SimulationView
    Contracts---SimulationView
    
Passenger---SimulationView
    end

    subgraph Fetch
    OEF---Driver
    OEF---Passenger
    OEF---Contracts
    end
 
